<svg width="19" height="19" viewBox="0 0 19 19" fill="none" xmlns="http://www.w3.org/2000/svg">
<path d="M16.0735 2.49036L7.46989 11.094C7.238 11.3259 6.86201 11.3259 6.63011 11.094L2.92648 7.39035L0 10.3168L5.58671 15.9036C5.97479 16.2917 6.50115 16.5097 7.04996 16.5097C7.59874 16.5097 8.12514 16.2917 8.51319 15.9036L19 5.4168L16.0735 2.49036Z" fill="#ffc412"/>
<g opacity="0.1">
<path opacity="0.1" d="M18.032 4.44897L6.96112 15.5199C6.65482 15.8262 6.26966 16.035 5.85352 16.1281C6.20097 16.3744 6.61827 16.5096 7.04974 16.5096C7.59851 16.5096 8.12491 16.2916 8.51296 15.9035L18.9998 5.41671L18.032 4.44897Z" fill="#ffc412"/>
</g>
</svg>
